\relax 
\providecommand\hyper@newdestlabel[2]{}
\providecommand\HyperFirstAtBeginDocument{\AtBeginDocument}
\HyperFirstAtBeginDocument{\ifx\hyper@anchor\@undefined
\global\let\oldcontentsline\contentsline
\gdef\contentsline#1#2#3#4{\oldcontentsline{#1}{#2}{#3}}
\global\let\oldnewlabel\newlabel
\gdef\newlabel#1#2{\newlabelxx{#1}#2}
\gdef\newlabelxx#1#2#3#4#5#6{\oldnewlabel{#1}{{#2}{#3}}}
\AtEndDocument{\ifx\hyper@anchor\@undefined
\let\contentsline\oldcontentsline
\let\newlabel\oldnewlabel
\fi}
\fi}
\global\let\hyper@last\relax 
\gdef\HyperFirstAtBeginDocument#1{#1}
\providecommand\HyField@AuxAddToFields[1]{}
\providecommand\HyField@AuxAddToCoFields[2]{}
\@writefile{toc}{\contentsline {section}{\numberline {1}The motive}{2}{section.1}}
\@writefile{toc}{\contentsline {subsection}{\numberline {1.1}Fractals}{2}{subsection.1.1}}
\@writefile{toc}{\contentsline {subsubsection}{\numberline {1.1.1}What is a fractal?}{2}{subsubsection.1.1.1}}
\@writefile{lof}{\contentsline {figure}{\numberline {1}{\ignorespaces The mandelbrot set\relax }}{2}{figure.caption.2}}
\@writefile{toc}{\contentsline {subsubsection}{\numberline {1.1.2}Calculating fractals}{2}{subsubsection.1.1.2}}
\@writefile{lof}{\contentsline {figure}{\numberline {2}{\ignorespaces Broccoli\relax }}{3}{figure.caption.3}}
\@writefile{toc}{\contentsline {subsubsection}{\numberline {1.1.3}The Escape-Time Algorithm}{3}{subsubsection.1.1.3}}
\@writefile{lof}{\contentsline {figure}{\numberline {3}{\ignorespaces Mandelbrot using low iteration settings\relax }}{3}{figure.caption.4}}
\@writefile{toc}{\contentsline {subsection}{\numberline {1.2}Generalization}{3}{subsection.1.2}}
\@writefile{toc}{\contentsline {subsubsection}{\numberline {1.2.1}Extending The Escape-Time Algorithm}{3}{subsubsection.1.2.1}}
\providecommand*\caption@xref[2]{\@setref\relax\@undefined{#1}}
\newlabel{fig:sub1}{{4a}{4}{Without lighting\relax }{figure.caption.5}{}}
\newlabel{sub@fig:sub1}{{a}{4}{Without lighting\relax }{figure.caption.5}{}}
\newlabel{fig:sub2}{{4b}{4}{With lighting\relax }{figure.caption.5}{}}
\newlabel{sub@fig:sub2}{{b}{4}{With lighting\relax }{figure.caption.5}{}}
\@writefile{lof}{\contentsline {figure}{\numberline {4}{\ignorespaces Mandelbox with and without lighting\relax }}{4}{figure.caption.5}}
\newlabel{fig:lighting_diff}{{4}{4}{Mandelbox with and without lighting\relax }{figure.caption.5}{}}
\@writefile{toc}{\contentsline {subsubsection}{\numberline {1.2.2}Extending the space}{4}{subsubsection.1.2.2}}
\@writefile{toc}{\contentsline {subsection}{\numberline {1.3}A universal tool}{4}{subsection.1.3}}
\@writefile{toc}{\contentsline {section}{\numberline {2}The solution}{4}{section.2}}
\@writefile{toc}{\contentsline {subsection}{\numberline {2.1}NViewer}{4}{subsection.2.1}}
\@writefile{toc}{\contentsline {subsection}{\numberline {2.2}Graphical engine}{5}{subsection.2.2}}
\@writefile{toc}{\contentsline {subsubsection}{\numberline {2.2.1}The transformation matrix}{5}{subsubsection.2.2.1}}
\@writefile{toc}{\contentsline {subsubsection}{\numberline {2.2.2}The functions}{6}{subsubsection.2.2.2}}
\@writefile{lof}{\contentsline {figure}{\numberline {5}{\ignorespaces Solid vs. trasparent\relax }}{6}{figure.caption.6}}
\newlabel{fig:trans_solid}{{5}{6}{Solid vs. trasparent\relax }{figure.caption.6}{}}
\@writefile{toc}{\contentsline {subsubsection}{\numberline {2.2.3}The layers}{6}{subsubsection.2.2.3}}
\@writefile{lof}{\contentsline {figure}{\numberline {6}{\ignorespaces The surface\relax }}{7}{figure.caption.7}}
\newlabel{fig:surface}{{6}{7}{The surface\relax }{figure.caption.7}{}}
\@writefile{toc}{\contentsline {subsection}{\numberline {2.3}Scripting}{8}{subsection.2.3}}
\@writefile{toc}{\contentsline {subsection}{\numberline {2.4}User interface}{8}{subsection.2.4}}
\@writefile{lof}{\contentsline {figure}{\numberline {7}{\ignorespaces User interface: 1 - Display; 2 - Log; 3 - Memory usage; 4 - Camera settings\relax }}{9}{figure.caption.8}}
\newlabel{fig:ui}{{7}{9}{User interface: 1 - Display; 2 - Log; 3 - Memory usage; 4 - Camera settings\relax }{figure.caption.8}{}}
\@writefile{toc}{\contentsline {section}{\numberline {3}Scripting}{9}{section.3}}
\@writefile{toc}{\contentsline {subsection}{\numberline {3.1}Goals}{9}{subsection.3.1}}
\@writefile{toc}{\contentsline {subsection}{\numberline {3.2}The language}{9}{subsection.3.2}}
